<div id="header">
<div id="headerIn">
<p class="logo"><img src="/global_common/image/header_logo_s.gif" alt="YAMATO TRANSPORT CO.,LTD." width="284" height="21"></p>
<!-- //#headerIn --></div>
<!-- //#header --></div>

